<?xml version="1.0" encoding="UTF-8" standalone="no"?>
<!-- Created with Inkscape (http://www.inkscape.org/) -->

<svg
   xmlns:dc="http://purl.org/dc/elements/1.1/"
   xmlns:cc="http://creativecommons.org/ns#"
   xmlns:rdf="http://www.w3.org/1999/02/22-rdf-syntax-ns#"
   xmlns:svg="http://www.w3.org/2000/svg"
   xmlns="http://www.w3.org/2000/svg"
   xmlns:sodipodi="http://sodipodi.sourceforge.net/DTD/sodipodi-0.dtd"
   xmlns:inkscape="http://www.inkscape.org/namespaces/inkscape"
   width="93.847687mm"
   height="105.27197mm"
   viewBox="0 0 93.847687 105.27197"
   version="1.1"
   id="svg8"
   inkscape:version="0.92.2 (5c3e80d, 2017-08-06)"
   sodipodi:docname="icon.svg"
   inkscape:export-filename="/Users/christian/Documents/rprojects/littlehelpers/icon.png"
   inkscape:export-xdpi="90"
   inkscape:export-ydpi="90">
  <defs
     id="defs2" />
  <sodipodi:namedview
     id="base"
     pagecolor="#ffffff"
     bordercolor="#666666"
     borderopacity="1.0"
     inkscape:pageopacity="0.0"
     inkscape:pageshadow="2"
     inkscape:zoom="0.35"
     inkscape:cx="-155.50718"
     inkscape:cy="-138.20372"
     inkscape:document-units="mm"
     inkscape:current-layer="layer1"
     showgrid="false"
     fit-margin-top="10"
     fit-margin-left="10"
     fit-margin-right="10"
     fit-margin-bottom="10"
     inkscape:window-width="1280"
     inkscape:window-height="800"
     inkscape:window-x="1280"
     inkscape:window-y="22"
     inkscape:window-maximized="0" />
  <metadata
     id="metadata5">
    <rdf:RDF>
      <cc:Work
         rdf:about="">
        <dc:format>image/svg+xml</dc:format>
        <dc:type
           rdf:resource="http://purl.org/dc/dcmitype/StillImage" />
        <dc:title />
      </cc:Work>
    </rdf:RDF>
  </metadata>
  <g
     inkscape:label="Ebene 1"
     inkscape:groupmode="layer"
     id="layer1"
     transform="translate(-14.308299,-6.9949684)">
    <path
       sodipodi:type="star"
       style="fill:#330080;fill-opacity:1;stroke:none;stroke-width:2.64583325;stroke-miterlimit:4;stroke-dasharray:none;stroke-opacity:0.59607843"
       id="path18"
       sodipodi:sides="6"
       sodipodi:cx="61.232143"
       sodipodi:cy="59.630951"
       sodipodi:r1="42.635983"
       sodipodi:r2="36.923843"
       sodipodi:arg1="2.6179939"
       sodipodi:arg2="3.1415927"
       inkscape:flatsided="true"
       inkscape:rounded="0"
       inkscape:randomized="0"
       d="m 24.308299,80.948941 10e-7,-42.635982 36.923844,-21.317991 36.923844,21.317992 -10e-7,42.635983 -36.923845,21.317987 z" />
    <path
       d="m -159.38813,95.31204 0,-42.635983 36.92384,-21.31799 36.923848,21.317992 -10e-7,42.635982 -36.923847,21.317989 z"
       inkscape:randomized="0"
       inkscape:rounded="0"
       inkscape:flatsided="true"
       sodipodi:arg2="3.1415927"
       sodipodi:arg1="2.6179939"
       sodipodi:r2="36.923843"
       sodipodi:r1="42.635983"
       sodipodi:cy="73.994049"
       sodipodi:cx="-122.46429"
       sodipodi:sides="6"
       id="path854"
       style="fill:#4400aa;fill-opacity:1;stroke:none;stroke-width:2.64583325;stroke-miterlimit:4;stroke-dasharray:none;stroke-opacity:0.59607843"
       sodipodi:type="star"
       transform="matrix(0.85668701,0,0,0.84042653,166.14571,-2.555611)" />
    <text
       xml:space="preserve"
       style="font-style:normal;font-variant:normal;font-weight:bold;font-stretch:normal;font-size:11.28888893px;line-height:1.25;font-family:'Source Sans Pro';-inkscape-font-specification:'Source Sans Pro Bold';letter-spacing:0px;word-spacing:0px;fill:#000000;fill-opacity:1;stroke:none;stroke-width:0.26458332"
       x="33.170261"
       y="53.122906"
       id="text858"><tspan
         sodipodi:role="line"
         id="tspan856"
         x="33.170261"
         y="53.122906"
         style="font-style:normal;font-variant:normal;font-weight:normal;font-stretch:normal;font-size:9.87777805px;line-height:1;font-family:'Source Sans Pro';-inkscape-font-specification:'Source Sans Pro';fill:#d5d5ff;stroke-width:0.26458332">little</tspan><tspan
         sodipodi:role="line"
         x="33.170261"
         y="70.056236"
         style="font-size:16.93333244px;line-height:1;fill:#d5d5ff;stroke-width:0.26458332"
         id="tspan860">helpers</tspan></text>
  </g>
</svg>
